{
	"directorios": {
		"sass": {
			"fuente": "src/css/*.scss",
			"destino": {
				"dev": "dist/dev/css",
				"prod": "dist/prod/css"
			},
			"watcher": "src/css/**/*.scss"
		},
		"pug": {
			"fuente": ["src/html/**/*.pug", "!src/html/template/*.pug", "!src/html/config/*.pug", "!src/html/mixins/*.pug", "!src/html/components/*.pug"],
			"destino": {
				"dev": "dist/dev",
				"prod": "dist/prod"
			},
			"watcher": "src/html/**/*.pug",
			"recargar": {
				"dev": "dist/dev/**.html",
				"prod": "dist/prod/**.html"
			}
		},
		"js": {
			"fuente": [
				"node_modules/materialize-css/js/cash.js",
				"node_modules/materialize-css/js/component.js",
				"node_modules/materialize-css/js/global.js",
				"node_modules/materialize-css/js/anime.min.js",
				"node_modules/materialize-css/js/collapsible.js",
				"node_modules/materialize-css/js/dropdown.js",
				"node_modules/materialize-css/js/select.js",
				"node_modules/slick-carousel/slick/slick.js",
				"src/js/main.js"
			],
			"babelPlugins": [
				"transform-es2015-arrow-functions",
				"transform-es2015-block-scoping",
				"transform-es2015-classes",
				"transform-es2015-template-literals",
				"transform-es2015-object-super"
			],
			"destino": {
				"dev": "dist/dev/js",
				"prod": "dist/prod/js"
			},
			"recargar": {
				"dev": "dist/dev/js/**.js",
				"prod": "dist/dev/js/**.js"
			},
			"watcher": "src/js/**/*.js"
		},
		"imagenes": {
			"fuente": "src/images/**/*.*",
			"destino": {
				"dev": "dist/dev/images",
				"prod": "dist/prod/images"
			}
		},
		"fonts": {
			"fuente": "src/fonts/**/*.*",
			"destino": {
				"dev": "dist/dev/css/fonts",
				"prod": "dist/prod/css/fonts"
			}
		},
		"video": {
			"fuente": "src/video/**/*.*",
			"destino": {
				"dev": "dist/dev/video",
				"prod": "dist/prod/video"
			}
		}
	}
}
