<?xml version="1.0" encoding="UTF-8"?>
<svg width="247px" height="100px" viewBox="0 0 247 100" version="1.1" xmlns="http://www.w3.org/2000/svg" xmlns:xlink="http://www.w3.org/1999/xlink">
    <title>logo_iniciativa_white_footer</title>
    <defs>
        <polygon id="path-1" points="0.6653 0.3893 39.4033 0.3893 39.4033 42 0.6653 42"></polygon>
        <polygon id="path-3" points="0.8502 0.3902 34.634 0.3902 34.634 42 0.8502 42"></polygon>
        <polygon id="path-5" points="0.0909245713 0.6586 9.634 0.6586 9.634 10.8176 0.0909245713 10.8176"></polygon>
        <polygon id="path-7" points="0.000318006101 0.024055056 78.404721 0.024055056 78.404721 39 0.000318006101 39"></polygon>
    </defs>
    <g id="Page-1" stroke="none" stroke-width="1" fill="none" fill-rule="evenodd">
        <g id="Desktop-HD" transform="translate(-2.000000, 0.000000)">
            <g id="logo_iniciativa_white_footer" transform="translate(2.000000, 0.000000)">
                <path d="M98.2254,61.0273 C98.2254,59.9373 99.1174,59.1443 100.1084,59.1443 L108.3304,59.1443 C109.3224,59.1443 110.2134,59.9373 110.2134,61.0273 L110.2134,96.8913 C110.2134,97.8813 109.3224,98.7733 108.3304,98.7733 L100.1084,98.7733 C99.1174,98.7733 98.2254,97.8813 98.2254,96.8913 L98.2254,61.0273 Z M97.3334,38.2403 C97.3334,34.4753 100.3064,31.4043 104.0714,31.4043 C107.9344,31.4043 111.0054,34.4753 111.0054,38.2403 C111.0054,42.0063 107.9344,45.0763 104.0714,45.0763 C100.3064,45.0763 97.3334,42.0063 97.3334,38.2403 L97.3334,38.2403 Z" id="Fill-1" fill="#FFFFFF"></path>
                <path d="M139.6375,89.0644 C144.8885,89.0644 147.2665,85.0024 147.9595,82.6254 L147.9595,71.1324 C147.9595,71.1324 145.1855,68.8534 140.2325,68.8534 C134.6845,68.8534 130.6215,73.4114 130.6215,78.9594 C130.6215,84.5074 134.3865,89.0644 139.6375,89.0644 M138.7455,58.1544 C142.7085,58.1544 145.7805,59.2444 147.5635,59.9374 L147.5635,33.8764 C147.5635,31.4274 149.5685,29.4224 152.0175,29.4224 L155.2955,29.4224 C157.7445,29.4224 159.7485,31.4274 159.7485,33.8764 L159.7485,96.8914 C159.7485,97.9264 158.9025,98.7734 157.8665,98.7734 L154.0025,98.7734 C153.1115,98.7734 152.4175,97.9814 152.1205,96.8914 L151.1295,93.8204 C151.1295,93.8204 146.4735,99.7644 138.1515,99.7644 C127.3525,99.7644 119.1295,90.3524 119.1295,78.9594 C119.1295,67.3684 126.9565,58.1544 138.7455,58.1544" id="Fill-3" fill="#FFFFFF"></path>
                <g id="Group-7" transform="translate(168.000000, 57.764500)">
                    <mask id="mask-2" fill="white">
                        <use xlink:href="#path-1"></use>
                    </mask>
                    <g id="Clip-6"></g>
                    <path d="M27.8113,16.2413 C27.5143,12.5753 24.3433,9.5043 20.5793,9.5043 C16.6163,9.5043 13.3463,12.4763 12.8513,16.2413 L27.8113,16.2413 Z M20.8763,0.3893 C31.0813,0.3893 39.4033,8.1173 39.4033,18.8173 C39.4033,19.5113 39.3033,20.7993 39.2053,21.4923 C39.1063,22.4823 38.2133,23.1763 37.3223,23.1763 L11.9593,23.1763 C12.2563,27.2383 15.7243,31.7953 21.4703,31.7953 C24.5413,31.7953 27.4153,30.6063 29.1983,29.3183 C30.1893,28.7233 31.0813,28.5263 31.7743,29.3183 L35.8363,33.9743 C36.5303,34.6693 36.7283,35.7583 35.7373,36.5513 C32.4673,39.6223 27.4153,42.0003 20.9753,42.0003 C9.0863,42.0003 0.6653,32.5883 0.6653,21.1943 C0.6653,9.9993 9.0863,0.3893 20.8763,0.3893 L20.8763,0.3893 Z" id="Fill-5" fill="#FFFFFF" mask="url(#mask-2)"></path>
                </g>
                <g id="Group-10" transform="translate(212.000000, 57.764500)">
                    <mask id="mask-4" fill="white">
                        <use xlink:href="#path-3"></use>
                    </mask>
                    <g id="Clip-9"></g>
                    <path d="M16.9002,33.5792 C20.0712,33.5792 23.1422,30.9032 23.7362,29.7152 L23.7362,24.2662 C23.7362,24.2662 21.0612,23.0772 18.1882,23.0772 C14.3252,23.0772 11.7492,25.2572 11.7492,28.4272 C11.7492,31.3992 13.8302,33.5792 16.9002,33.5792 M16.7022,15.9442 C20.6662,15.9442 23.9342,17.0332 23.9342,17.0332 C24.0342,11.9812 22.4492,10.1972 18.7832,10.1972 C15.1172,10.1972 9.9652,10.9902 7.6872,11.6832 C6.2992,12.0802 5.6062,11.1882 5.4082,9.9002 L4.5162,4.7492 C4.2192,3.2632 5.0112,2.5692 5.9032,2.2712 C6.6962,1.9752 13.0372,0.3902 19.3782,0.3902 C31.7612,0.3902 34.6342,6.8292 34.6342,17.6282 L34.6342,39.1272 C34.6342,40.1172 33.7432,41.0092 32.7522,41.0092 L29.1852,41.0092 C28.4922,41.0092 27.9972,40.7122 27.5012,39.6222 L26.3122,36.9472 C24.0342,39.0272 20.3682,42.0002 14.2252,42.0002 C6.2992,42.0002 0.8502,36.8482 0.8502,28.4272 C0.8502,21.3922 6.5962,15.9442 16.7022,15.9442" id="Fill-8" fill="#FFFFFF" mask="url(#mask-4)"></path>
                </g>
                <path d="M173.4793,29.8379 C173.4793,29.6949 173.6083,29.5669 173.7503,29.5669 L175.0823,29.5669 C175.2253,29.5669 175.3533,29.6949 175.3533,29.8379 L175.3533,39.3099 C175.3533,39.4529 175.2253,39.5819 175.0823,39.5819 L173.7503,39.5819 C173.6083,39.5819 173.4793,39.4529 173.4793,39.3099 L173.4793,29.8379 Z" id="Fill-11" fill="#FFFFFF"></path>
                <path d="M178.1004,29.6806 C178.1004,29.5366 178.2294,29.4226 178.3714,29.4226 L178.7304,29.4226 L184.6824,35.7466 L184.6964,35.7466 L184.6964,29.8376 C184.6964,29.6956 184.8104,29.5666 184.9684,29.5666 L186.2844,29.5666 C186.4274,29.5666 186.5564,29.6956 186.5564,29.8376 L186.5564,39.4676 C186.5564,39.6106 186.4274,39.7246 186.2844,39.7246 L185.9414,39.7246 L179.9604,33.1576 L179.9464,33.1576 L179.9464,39.3096 C179.9464,39.4526 179.8314,39.5816 179.6744,39.5816 L178.3714,39.5816 C178.2294,39.5816 178.1004,39.4526 178.1004,39.3096 L178.1004,29.6806 Z" id="Fill-13" fill="#FFFFFF"></path>
                <path d="M189.3035,29.8379 C189.3035,29.6949 189.4325,29.5669 189.5745,29.5669 L190.9065,29.5669 C191.0485,29.5669 191.1775,29.6949 191.1775,29.8379 L191.1775,39.3099 C191.1775,39.4529 191.0485,39.5819 190.9065,39.5819 L189.5745,39.5819 C189.4325,39.5819 189.3035,39.4529 189.3035,39.3099 L189.3035,29.8379 Z" id="Fill-15" fill="#FFFFFF"></path>
                <path d="M198.3602,29.4228 C199.8052,29.4228 200.8492,29.8808 201.8232,30.7538 C201.9522,30.8678 201.9522,31.0398 201.8372,31.1538 L200.9642,32.0558 C200.8642,32.1698 200.7212,32.1698 200.6062,32.0558 C200.0062,31.5268 199.2052,31.2118 198.4032,31.2118 C196.5722,31.2118 195.2132,32.7418 195.2132,34.5458 C195.2132,36.3338 196.5862,37.8508 198.4182,37.8508 C199.2762,37.8508 200.0062,37.5218 200.6062,37.0348 C200.7212,36.9348 200.8792,36.9488 200.9642,37.0348 L201.8512,37.9498 C201.9652,38.0508 201.9372,38.2358 201.8372,38.3368 C200.8642,39.2808 199.6332,39.7248 198.3602,39.7248 C195.4992,39.7248 193.1952,37.4498 193.1952,34.5878 C193.1952,31.7268 195.4992,29.4228 198.3602,29.4228" id="Fill-17" fill="#FFFFFF"></path>
                <path d="M203.8543,29.8379 C203.8543,29.6949 203.9833,29.5669 204.1253,29.5669 L205.4573,29.5669 C205.5993,29.5669 205.7283,29.6949 205.7283,29.8379 L205.7283,39.3099 C205.7283,39.4529 205.5993,39.5819 205.4573,39.5819 L204.1253,39.5819 C203.9833,39.5819 203.8543,39.4529 203.8543,39.3099 L203.8543,29.8379 Z" id="Fill-19" fill="#FFFFFF"></path>
                <path d="M213.3543,36.1621 L211.9233,33.0151 L211.8803,33.0151 L210.4783,36.1621 L213.3543,36.1621 Z M207.1733,39.2101 L211.6233,29.5811 C211.6663,29.4941 211.7373,29.4231 211.8663,29.4231 L212.0093,29.4231 C212.1523,29.4231 212.2093,29.4941 212.2523,29.5811 L216.6603,39.2101 C216.7463,39.3951 216.6303,39.5821 216.4173,39.5821 L215.1713,39.5821 C214.9573,39.5821 214.8573,39.4961 214.7563,39.2961 L214.0553,37.7511 L209.7773,37.7511 L209.0773,39.2961 C209.0193,39.4381 208.8903,39.5821 208.6623,39.5821 L207.4173,39.5821 C207.2023,39.5821 207.0873,39.3951 207.1733,39.2101 L207.1733,39.2101 Z" id="Fill-21" fill="#FFFFFF"></path>
                <path d="M218.9207,31.2832 L216.7317,31.2832 C216.5737,31.2832 216.4597,31.1542 216.4597,31.0122 L216.4597,29.8382 C216.4597,29.6952 216.5737,29.5662 216.7317,29.5662 L222.9837,29.5662 C223.1417,29.5662 223.2557,29.6952 223.2557,29.8382 L223.2557,31.0122 C223.2557,31.1542 223.1417,31.2832 222.9837,31.2832 L220.7947,31.2832 L220.7947,39.3092 C220.7947,39.4532 220.6657,39.5822 220.5237,39.5822 L219.1917,39.5822 C219.0487,39.5822 218.9207,39.4532 218.9207,39.3092 L218.9207,31.2832 Z" id="Fill-23" fill="#FFFFFF"></path>
                <path d="M224.8865,29.8379 C224.8865,29.6949 225.0155,29.5669 225.1575,29.5669 L226.4895,29.5669 C226.6315,29.5669 226.7605,29.6949 226.7605,29.8379 L226.7605,39.3099 C226.7605,39.4529 226.6315,39.5819 226.4895,39.5819 L225.1575,39.5819 C225.0155,39.5819 224.8865,39.4529 224.8865,39.3099 L224.8865,29.8379 Z" id="Fill-25" fill="#FFFFFF"></path>
                <path d="M228.2059,29.9385 C228.1199,29.7515 228.2339,29.5665 228.4489,29.5665 L229.9079,29.5665 C230.0369,29.5665 230.1229,29.6525 230.1509,29.7235 L232.8979,35.8755 L232.9989,35.8755 L235.7459,29.7235 C235.7739,29.6525 235.8599,29.5665 235.9889,29.5665 L237.4489,29.5665 C237.6629,29.5665 237.7779,29.7515 237.6919,29.9385 L233.2569,39.5675 C233.2139,39.6535 233.1419,39.7245 233.0139,39.7245 L232.8699,39.7245 C232.7409,39.7245 232.6699,39.6535 232.6269,39.5675 L228.2059,29.9385 Z" id="Fill-27" fill="#FFFFFF"></path>
                <g id="Group-31" transform="translate(237.000000, 28.764500)">
                    <mask id="mask-6" fill="white">
                        <use xlink:href="#path-5"></use>
                    </mask>
                    <g id="Clip-30"></g>
                    <path d="M6.3006,7.3976 L4.8696,4.2506 L4.8266,4.2506 L3.4246,7.3976 L6.3006,7.3976 Z M0.1196,10.4456 L4.5696,0.8166 C4.6126,0.7296 4.6846,0.6586 4.8126,0.6586 L4.9556,0.6586 C5.0986,0.6586 5.1556,0.7296 5.1986,0.8166 L9.6066,10.4456 C9.6916,10.6306 9.5766,10.8176 9.3636,10.8176 L8.1176,10.8176 C7.9036,10.8176 7.8026,10.7316 7.7026,10.5316 L7.0016,8.9866 L2.7236,8.9866 L2.0226,10.5316 C1.9656,10.6736 1.8366,10.8176 1.6076,10.8176 L0.3636,10.8176 C0.1486,10.8176 0.0336,10.6306 0.1196,10.4456 L0.1196,10.4456 Z" id="Fill-29" fill="#FFFFFF" mask="url(#mask-6)"></path>
                </g>
                <path d="M39.2088,21.248 C35.3328,21.248 32.1808,18.096 32.1808,14.22 C32.1808,10.346 35.3328,7.193 39.2088,7.193 C43.0848,7.193 46.2348,10.346 46.2348,14.22 C46.2348,18.096 43.0848,21.248 39.2088,21.248 M39.2078,-1.42108547e-14 C31.3678,-1.42108547e-14 24.9888,6.38 24.9888,14.219 C24.9888,22.06 31.3678,28.44 39.2078,28.44 C47.0498,28.44 53.4298,22.06 53.4298,14.219 C53.4298,6.38 47.0498,-1.42108547e-14 39.2078,-1.42108547e-14" id="Fill-32" fill="#FFFFFF"></path>
                <path d="M20.868,35.5498 C22.046,33.9598 24.209,33.5598 25.934,34.5288 C30.005,36.8168 34.574,38.0118 39.327,38.0118 C43.987,38.0118 48.478,36.8598 52.494,34.6538 C54.23,33.6998 56.391,34.1178 57.556,35.7208 L58.138,36.5218 C59.477,38.3658 58.97,41.0168 56.981,42.1338 C51.611,45.1518 45.583,46.7308 39.327,46.7308 C33,46.7308 26.92,45.1218 21.512,42.0458 C19.476,40.8888 18.886,38.2258 20.279,36.3458 L20.868,35.5498 Z" id="Fill-34" fill="#FFFFFF"></path>
                <path d="M11.0457,49.0498 C12.2437,47.4228 14.4827,47.0068 16.1987,48.0708 C23.1347,52.3678 31.0607,54.6238 39.3267,54.6238 C47.4977,54.6238 55.3437,52.4178 62.2267,48.2128 C63.9497,47.1598 66.1867,47.5878 67.3747,49.2218 L67.9487,50.0108 C69.2767,51.8358 68.7747,54.4228 66.8517,55.6038 C58.5827,60.6798 49.1497,63.3428 39.3267,63.3428 C29.3747,63.3428 19.8337,60.6128 11.4937,55.4118 C9.5927,54.2268 9.1337,51.6458 10.4627,49.8418 L11.0457,49.0498 Z" id="Fill-36" fill="#FFFFFF"></path>
                <g id="Group-40" transform="translate(0.000000, 60.764500)">
                    <mask id="mask-8" fill="white">
                        <use xlink:href="#path-7"></use>
                    </mask>
                    <g id="Clip-39"></g>
                    <path d="M49.0008,39.0001 L47.9388,39.0001 C45.8238,39.0001 44.1098,37.2861 44.1098,35.1721 L44.1098,22.8311 C44.1098,20.6881 42.3538,18.9831 40.2108,19.0151 C39.9168,19.0201 39.6218,19.0211 39.3268,19.0211 C38.9518,19.0211 38.5778,19.0181 38.2038,19.0121 C36.0618,18.9751 34.3038,20.6841 34.3038,22.8271 L34.3038,35.1721 C34.3038,37.2861 32.5898,39.0001 30.4768,39.0001 L29.4128,39.0001 C27.2988,39.0001 25.5848,37.2861 25.5848,35.1721 L25.5848,20.6491 C25.5848,18.9031 24.3648,17.4291 22.6698,17.0111 C15.2738,15.1881 8.2298,12.1431 1.7608,7.9461 C-0.0952,6.7421 -0.5652,4.2241 0.7428,2.4411 L1.3728,1.5851 C2.5648,-0.0379 4.8148,-0.4639 6.5048,0.6321 C16.2778,6.9721 27.5528,10.3031 39.3268,10.3031 C51.0018,10.3031 62.1958,7.0211 71.9178,0.7811 C73.6128,-0.3069 75.8608,0.1281 77.0468,1.7571 L77.6718,2.6151 C78.9728,4.4031 78.4908,6.9201 76.6298,8.1151 C70.1608,12.2701 63.1238,15.2781 55.7408,17.0701 C54.0148,17.4891 52.8288,19.0811 52.8288,20.8571 L52.8288,35.1721 C52.8288,37.2861 51.1148,39.0001 49.0008,39.0001" id="Fill-38" fill="#FFFFFF" mask="url(#mask-8)"></path>
                </g>
            </g>
        </g>
    </g>
</svg>